// Jest Snapshot v1, https://goo.gl/fbAQLP

exports[`<Portfolio /> Rendering 1`] = `
<div>
  <div
    class="margin--horizontal margin--vertical--double"
  >
    <div
      class="form-field--split"
    >
      <label
        title="Default dummyString"
      >
        Default dummyString
      </label>
      <input
        class=""
        disabled=""
        type="text"
        value=""
      />
    </div>
  </div>
  <div
    class="form"
  >
    <div
      class="row"
    >
      <div
        class="form margin--horizontal"
      >
        Override Default dummyString
      </div>
      <div
        class="row"
      >
        <div>
          <label
            class="margin--right"
          />
          <input
            checked=""
            type="checkbox"
          />
        </div>
      </div>
    </div>
  </div>
  <div
    class="margin--horizontal margin--vertical--double"
  >
    <div
      class="form-field--split"
    >
      <label
        title="dummyString"
      >
        dummyString
      </label>
      <div
        class="css-nehr9j"
      >
        <div
          class="control"
        >
          <div
            class="border css-1hvfpd5-InsetInput"
          >
            <div
              class="inputContainer"
            >
              <input
                placeholder=""
                type="text"
                value=""
              />
            </div>
          </div>
          <button
            class="trigger secondary"
            tabindex="-1"
            type="button"
          >
            <i
              class="icon-caret--down"
            />
          </button>
        </div>
      </div>
    </div>
  </div>
</div>
`;
